…
```r
compensation <- read_csv("data/ipomopsis.csv")
compensation
```

```
## # A tibble: 40 x 3
##     Root Fruit Grazing 
##    <dbl> <dbl> <chr>   
##  1  6.22  59.8 Ungrazed
##  2  6.49  61.0 Ungrazed
##  3  4.92  14.7 Ungrazed
##  4  5.13  19.3 Ungrazed
##  5  5.42  34.2 Ungrazed
##  6  5.36  35.5 Ungrazed
##  7  7.61  87.7 Ungrazed
##  8  6.35  63.2 Ungrazed
##  9  4.97  24.2 Ungrazed
## 10  6.93  64.3 Ungrazed
## # ... with 30 more rows
```
…
