…
También es posible eliminar las filas según posición:


```r
nombres_comunes %>% 
  slice(-(1:10)) #Tengan en cuenta los parentesis extra
```

```
## # A tibble: 33,665 x 3
##    nombre   anio cantidad
##    <chr>   <int>    <int>
##  1 Abigail  1992      120
##  2 Abigail  1993      165
##  3 Abigail  1994      198
##  4 Abigail  1995      182
##  5 Abigail  1996      159
##  6 Abigail  1997      167
##  7 Abigail  1998      210
##  8 Abigail  1999      174
##  9 Abigail  2010      171
## 10 Abigail  2011      152
## # ... with 33,655 more rows
```
…
</div>\EndKnitrBlock{exercise}

## Seleccionando columnas

La función para seleccionar columnas es `seletc()`. Hay muchas formas de 
seleccionar columnas. La más obvia es por nombre de la columna:


```r
nombres_comunes %>% 
  select(nombre, cantidad)
```

```
## # A tibble: 33,675 x 2
##    nombre         cantidad
##    <chr>             <int>
##  1 Aaron               152
##  2 Aaron               167
##  3 Aaron               200
##  4 Aaron Benjamin      108
##  5 Aaron Benjamin      120
##  6 Aaron Benjamin      125
##  7 Abel                102
##  8 Abel                103
##  9 Abel                102
## 10 Abigail             132
## # ... with 33,665 more rows
```

También es posible seleccionar varias columnas usando secuencias:


```r
nombres_comunes %>% 
  select(nombre:cantidad)
```

```
## # A tibble: 33,675 x 3
##    nombre          anio cantidad
##    <chr>          <int>    <int>
##  1 Aaron           2012      152
##  2 Aaron           2013      167
##  3 Aaron           2014      200
##  4 Aaron Benjamin  2012      108
##  5 Aaron Benjamin  2013      120
##  6 Aaron Benjamin  2014      125
##  7 Abel            1982      102
##  8 Abel            1989      103
##  9 Abel            1990      102
## 10 Abigail         1991      132
## # ... with 33,665 more rows
```

De la misma forma se puede eliminar columnas usando el signo `-`.


```r
 nombres_comunes %>% 
  select(-anio)
```

```
## # A tibble: 33,675 x 2
##    nombre         cantidad
##    <chr>             <int>
##  1 Aaron               152
##  2 Aaron               167
##  3 Aaron               200
##  4 Aaron Benjamin      108
##  5 Aaron Benjamin      120
##  6 Aaron Benjamin      125
##  7 Abel                102
##  8 Abel                103
##  9 Abel                102
## 10 Abigail             132
## # ... with 33,665 more rows
```

Se pueden renombrar columnas 


```r
nombres_comunes %>% 
  select(año = anio)
```

```
## # A tibble: 33,675 x 1
##      año
##    <int>
##  1  2012
##  2  2013
##  3  2014
##  4  2012
##  5  2013
##  6  2014
##  7  1982
##  8  1989
##  9  1990
## 10  1991
## # ... with 33,665 more rows
```

Pero se eliminan las no seleccionadas. Se puede renombrar sin tener que 
seleccionar el resto usando la función `rename`


```r
nombres_comunes %>% 
  select(año = anio)
```

```
## # A tibble: 33,675 x 1
##      año
##    <int>
##  1  2012
##  2  2013
##  3  2014
##  4  2012
##  5  2013
##  6  2014
##  7  1982
##  8  1989
##  9  1990
## 10  1991
## # ... with 33,665 more rows
```
…
Otra operación muy común es agregar nuevas columnas o variables. Por ejemplo
al transformar los datos es siempre **mala idea** sobreescribir los datos 
originales.

Para esta operación sirve la función `mutate()`. Dado un *data frame* computa
una valor para cada fila. Por ejemplo:


```r
nombres %>% 
  mutate(log_cantidad = log10(cantidad))
```

```
## # A tibble: 3,749,133 x 4
##    nombre         anio cantidad log_cantidad
##    <chr>         <int>    <int>        <dbl>
##  1 A Aron Misael  2012        2        0.301
##  2 A Mi           1984        1        0.   
##  3 A N A          2012        1        0.   
##  4 A Reum         1983        5        0.699
##  5 A Reum         1987        7        0.845
##  6 A Sang         1994        4        0.602
##  7 Aaaraon        2013        1        0.   
##  8 Aadil          1992        1        0.   
##  9 Aage Andres    1990        1        0.   
## 10 Aage Carlos    1985        1        0.   
## # ... with 3,749,123 more rows
```
…
Y repetirlo cambiando el nombre para cada uno de los nombres. Por su puesto,
esta forma de hacer las cosas es muy incómoda y propensa a errores. Hay una
forma más fácil y es usando `group_by()`. Un ejemplo:


```r
# No intenten hacerlo en sus computadoras
# Los datos tienen más de 3 millones de registros y va a tomar un tiempo
nombres_comunes %>% 
  group_by(nombre) %>% 
  summarise(total = sum(cantidad))
```

```
## # A tibble: 4,272 x 2
##    nombre           total
##    <chr>            <int>
##  1 Aaron              519
##  2 Aaron Benjamin     353
##  3 Abel               307
##  4 Abigail           2656
##  5 Abril             4163
##  6 Adolfo             688
##  7 Adrian            4186
##  8 Adrian Alberto    2009
##  9 Adrian Alejandro  3460
## 10 Adrian Eduardo     106
## # ... with 4,262 more rows
```
…
Además de usar la función `summarise()` se puede usar la función `mutate` que
va a hacer que queden la misma cantidad de casos. Por ejemplo, calcular el 
número acumulado de personas con el mismo nombre en a través de los años:


```r
nombres_comunes %>% 
  group_by(nombre) %>% 
  arrange(anio, .by_group = TRUE) %>% 
  mutate(acumulado = cumsum(cantidad))
```

```
## # A tibble: 33,675 x 4
## # Groups:   nombre [4,272]
##    nombre          anio cantidad acumulado
##    <chr>          <int>    <int>     <int>
##  1 Aaron           2012      152       152
##  2 Aaron           2013      167       319
##  3 Aaron           2014      200       519
##  4 Aaron Benjamin  2012      108       108
##  5 Aaron Benjamin  2013      120       228
##  6 Aaron Benjamin  2014      125       353
##  7 Abel            1982      102       102
##  8 Abel            1989      103       205
##  9 Abel            1990      102       307
## 10 Abigail         1991      132       132
## # ... with 33,665 more rows
```

Acá hay una función nueva, `arrange()`. Lo que hace. Esta función ordena de manera
creciente (0-9, a-z) un conjunto de datos. Por ejemplo:


```r
nombres_comunes %>% 
  arrange(cantidad)
```

```
## # A tibble: 33,675 x 3
##    nombre              anio cantidad
##    <chr>              <int>    <int>
##  1 Adolfo              1981      101
##  2 Adrian Alberto      1990      101
##  3 Adrian Maximiliano  1988      101
##  4 Agustin Adrian      1998      101
##  5 Agustina Alejandra  1997      101
##  6 Ailin               1993      101
##  7 Alan Benjamin       2014      101
##  8 Alan Gabriel        1989      101
##  9 Alan Matias         1989      101
## 10 Alberto Martin      1987      101
## # ... with 33,665 more rows
```

Si queremos que sea decreciente (9-0, z-a), hay que agregar la función `desc()`.
Por ejemplo:


```r
nombres_comunes %>% 
  arrange(desc(cantidad))
```

```
## # A tibble: 33,675 x 3
##    nombre       anio cantidad
##    <chr>       <int>    <int>
##  1 Maria Belen  1993     6946
##  2 Maria Belen  1992     6249
##  3 Maria Belen  1994     6098
##  4 Juan Pablo   1982     5561
##  5 Maria Belen  1991     5307
##  6 Maria Laura  1980     5144
##  7 Maria Belen  1995     5094
##  8 Benjamin     2013     4964
##  9 Maria Laura  1981     4747
## 10 Benjamin     2012     4726
## # ... with 33,665 more rows
```

También se pueden poner varios criterios para que ordene según ellos. Por 
ejemplo, por cantidad y luego por orden alfabético. 


```r
nombres_comunes %>% 
  arrange(cantidad, nombre)
```

```
## # A tibble: 33,675 x 3
##    nombre              anio cantidad
##    <chr>              <int>    <int>
##  1 Adolfo              1981      101
##  2 Adrian Alberto      1990      101
##  3 Adrian Maximiliano  1988      101
##  4 Agustin Adrian      1998      101
##  5 Agustina Alejandra  1997      101
##  6 Ailin               1993      101
##  7 Alan Benjamin       2014      101
##  8 Alan Gabriel        1989      101
##  9 Alan Matias         1989      101
## 10 Alberto Martin      1987      101
## # ... with 33,665 more rows
```
…
