…
Ahora ya tengo los datos, pero para ordenarlos debo tener los largos en una 
columna, sin perder de vista que datos corresponden a machos y cuales a hembras.


```r
lobos_marinos %>% 
  gather(key = Sexo, value = LT)
```

```
## # A tibble: 28 x 2
##    Sexo      LT
##    <chr>  <dbl>
##  1 Machos   15.
##  2 Machos   10.
##  3 Machos   14.
##  4 Machos   17.
##  5 Machos   16.
##  6 Machos   11.
##  7 Machos   15.
##  8 Machos   20.
##  9 Machos   13.
## 10 Machos   NA 
## # ... with 18 more rows
```
…
```r
lobos_marinos %>% 
  gather(key = Sexo, value = LT) %>% 
  na.omit()
```

```
## # A tibble: 23 x 2
##    Sexo       LT
##    <chr>   <dbl>
##  1 Machos    15.
##  2 Machos    10.
##  3 Machos    14.
##  4 Machos    17.
##  5 Machos    16.
##  6 Machos    11.
##  7 Machos    15.
##  8 Machos    20.
##  9 Machos    13.
## 10 Hembras    9.
## # ... with 13 more rows
```
…
```r
lobos_marinos <- lobos_marinos %>% 
  gather(key = Sexo, value = LT) %>% 
  na.omit() %>% 
  mutate(rango = rank(x = LT, ties = "average"))
lobos_marinos
```

```
## # A tibble: 23 x 3
##    Sexo       LT rango
##    <chr>   <dbl> <dbl>
##  1 Machos    15. 19.0 
##  2 Machos    10. 10.5 
##  3 Machos    14. 17.0 
##  4 Machos    17. 22.0 
##  5 Machos    16. 21.0 
##  6 Machos    11. 12.0 
##  7 Machos    15. 19.0 
##  8 Machos    20. 23.0 
##  9 Machos    13. 15.0 
## 10 Hembras    9.  8.00
## # ... with 13 more rows
```
…
1.- Un investigador, trabajando con una especie de ratones de campo, desea saber
si los ejemplares provenientes del valle son de similar tamaño a los 
provenientes de la meseta. Para ello realizó capturas de ratones en ambos 
ambientes, midiendo el peso en gr de los ejemplares capturados. Los datos
obtenidos fueron:


```r
ratones
```

```
## # A tibble: 35 x 3
##     Peso Ambiente   row
##    <dbl> <fct>    <int>
##  1   38. Valle        1
##  2   47. Valle        2
##  3   50. Valle        3
##  4   51. Valle        4
##  5   39. Valle        5
##  6   39. Valle        6
##  7   44. Valle        7
##  8   40. Valle        8
##  9   46. Valle        9
## 10   50. Valle       10
## # ... with 25 more rows
```
…
```r
jefes 
```

```
## # A tibble: 35 x 3
##    Descarte  Jefe   row
##       <dbl> <dbl> <int>
##  1      17.    1.     1
##  2      10.    1.     2
##  3      15.    1.     3
##  4      22.    1.     4
##  5      15.    1.     5
##  6       9.    1.     6
##  7      20.    1.     7
##  8      14.    1.     8
##  9      21.    1.     9
## 10      19.    1.    10
## # ... with 25 more rows
```
…
Número de pichones producidos por hembras de pingüino de Magallanes a lo largo
de su vida, discriminado por el tipo de nido que utilizaron.


```r
pinguinos
```

```
## # A tibble: 32 x 3
##    Pichones Nido      row
##       <dbl> <fct>   <int>
##  1      10. Arbusto     1
##  2      13. Arbusto     2
##  3       7. Arbusto     3
##  4       7. Arbusto     4
##  5      11. Arbusto     5
##  6      11. Arbusto     6
##  7       8. Arbusto     7
##  8      11. Arbusto     8
##  9       8. Arbusto     9
## 10      12. Arbusto    10
## # ... with 22 more rows
```
…
8.- Estudiando la dieta de un delfín y del lobo marino, un biólogo desea
establecer si las tallas consumidas de calamares por estos predadores son
similares. Utilizando regresiones alométricas estimó los largos dorsales del
manto (LDM) a partir de los picos hallados en los contenidos estomacales.
Los datos obtenidos fueron:

Tallas de calamares (LDM, cm) consumidos por delfines y lobos marinos.

```r
LDM 
```

```
## # A tibble: 37 x 3
##      LDM Especie   row
##    <dbl> <fct>   <int>
##  1  26.0 Delfín      1
##  2  21.0 Delfín      2
##  3  24.6 Delfín      3
##  4  20.9 Delfín      4
##  5  26.4 Delfín      5
##  6  23.9 Delfín      6
##  7  25.6 Delfín      7
##  8  24.2 Delfín      8
##  9  20.4 Delfín      9
## 10  23.3 Delfín     10
## # ... with 27 more rows
```
…
```r
droga
```

```
## # A tibble: 24 x 3
##    Virus Tratamiento   row
##    <dbl> <fct>       <int>
##  1  34.4 Control         1
##  2  39.8 Control         2
##  3  26.6 Control         3
##  4  33.3 Control         4
##  5  37.3 Control         5
##  6  30.3 Control         6
##  7  16.2 Control         7
##  8  21.1 Control         8
##  9  43.4 Control         9
## 10  26.0 Control        10
## # ... with 14 more rows
```
…
10.- Se desea establecer si las poblaciones bonaerense y patagónica de anchoita
presentan similares niveles de parasitosis por nematodes en músculo. Para ello 
se tomaron muestras aleatorias de anchoitas de ambas poblaciones y se determinó
para cada ejemplar el número de larvas de nematodes alojadas en el músculo.
Los resultados fueron:
Número de larvas de nematodes en el músculo de anchoitas discriminadas por poblaciones.



```r
nematodes
```

```
## # A tibble: 41 x 3
##    Larvas Anchoita     row
##     <dbl> <fct>      <int>
##  1    14. Patagónica     1
##  2    36. Patagónica     2
##  3    26. Patagónica     3
##  4    23. Patagónica     4
##  5    14. Patagónica     5
##  6    36. Patagónica     6
##  7    26. Patagónica     7
##  8    23. Patagónica     8
##  9    14. Patagónica     9
## 10    26. Patagónica    10
## # ... with 31 more rows
```
…
11.- Un ecólogo desea determinar si la eficiencia de captura de dos especies de
araña es similar. Para ello realizó un experimento donde seleccionó al azar 
ejemplares de cada especie, les permitió confeccionar sus telas y luego 
introdujo una mosca en cada caja. El ecólogo determinó para cada araña el tiempo
en segundos que tardó en capturar la mosca. Los resultados fueron:
Tiempo de captura de la mosca en segundos.


```r
arana
```

```
## # A tibble: 36 x 3
##    Tiempo Especie   row
##     <dbl>   <dbl> <int>
##  1   159.      1.     1
##  2   143.      1.     2
##  3    90.      1.     3
##  4   130.      1.     4
##  5   148.      1.     5
##  6   150.      1.     6
##  7   161.      1.     7
##  8   166.      1.     8
##  9   164.      1.     9
## 10    87.      1.    10
## # ... with 26 more rows
```
…
12. Un productor de fruta fina está convencido que la producción en el Bolsón es
más alta que en Esquel. Para ello tomó datos producción de distintas parcelas en
ambas localidades. Sabiendo que el azar tenía algo que ver con la estadística,
se preocupó de seleccionar al azar las parcelas. Los datos obtenidos fueron:
Producción de fruta fina (kg) en cada parcela, discriminada por localidad



```r
fruta
```

```
## # A tibble: 35 x 3
##    Producción Localidad   row
##         <dbl> <fct>     <int>
##  1       56.6 Esquel        1
##  2       90.7 Esquel        2
##  3       29.7 Esquel        3
##  4       30.0 Esquel        4
##  5       61.4 Esquel        5
##  6       46.0 Esquel        6
##  7       61.3 Esquel        7
##  8       59.0 Esquel        8
##  9       61.4 Esquel        9
## 10       52.1 Esquel       10
## # ... with 25 more rows
```
…
