Estadística Avanzada para Ciencias Naturales
…
# Poner los datos en formato largo
# Una columna para la variable dependiente
# Una columna para la variable explicatoria
nitro <- nitro %>%
  gather(trt, nitro)
nitro

## # A tibble: 24 x 2
##    trt   nitro
##    <chr> <int>
##  1 A       270
##  2 A       255
##  3 A       278
##  4 A       294
##  5 A       292
##  6 A       300
##  7 A       242
##  8 A       271
##  9 B       309
## 10 B       295
## # ... with 14 more rows
…
